v 20130925 2
C 49100 43900 1 90 0 dsPIC33EVxxGMx02.sym
{
T 43000 46700 9 10 1 1 180 0 1
refdes=U1
T 42850 44200 9 10 0 0 90 0 1
device=dsPIC33EVxxGMx02
T 42450 44200 9 10 0 0 90 0 1
footprint=DIP28
}
C 48400 47600 1 180 0 diode-1.sym
{
T 48000 47000 5 10 0 0 180 0 1
device=DIODE
T 47700 47600 5 10 1 1 180 0 1
refdes=D3
}
C 50600 41200 1 270 0 diode-1.sym
{
T 51200 40800 5 10 0 0 270 0 1
device=DIODE
T 51000 40600 5 10 1 1 0 0 1
refdes=D1
}
C 41800 40300 1 90 0 diode-1.sym
{
T 41200 40700 5 10 0 0 90 0 1
device=DIODE
T 41300 40800 5 10 1 1 180 0 1
refdes=D2
}
C 46400 40300 1 90 0 resistor-1.sym
{
T 46000 40600 5 10 0 0 90 0 1
device=RESISTOR
T 46000 40600 5 10 1 1 180 0 1
refdes=R4
}
C 44200 42200 1 0 0 resistor-1.sym
{
T 44500 42600 5 10 0 0 0 0 1
device=RESISTOR
T 44400 42500 5 10 1 1 0 0 1
refdes=R5
}
C 44200 41700 1 0 0 resistor-1.sym
{
T 44500 42100 5 10 0 0 0 0 1
device=RESISTOR
T 44400 42000 5 10 1 1 0 0 1
refdes=R6
}
U 41600 40300 50800 40300 10 0
C 47200 48000 1 0 0 capacitor-4.sym
{
T 47400 49100 5 10 0 0 0 0 1
device=POLARIZED_CAPACITOR
T 47400 48500 5 10 1 1 0 0 1
refdes=C1
T 47400 48700 5 10 0 0 0 0 1
symversion=0.1
}
C 49900 41000 1 0 0 capacitor-1.sym
{
T 50100 41700 5 10 0 0 0 0 1
device=CAPACITOR
T 50100 41500 5 10 1 1 0 0 1
refdes=C5
T 50100 41900 5 10 0 0 0 0 1
symversion=0.1
}
C 41600 41000 1 0 0 capacitor-1.sym
{
T 41800 41700 5 10 0 0 0 0 1
device=CAPACITOR
T 41800 41500 5 10 1 1 0 0 1
refdes=C4
T 41800 41900 5 10 0 0 0 0 1
symversion=0.1
}
C 46300 42500 1 0 0 capacitor-1.sym
{
T 46500 43200 5 10 0 0 0 0 1
device=CAPACITOR
T 46500 43000 5 10 1 1 0 0 1
refdes=C3
T 46500 43400 5 10 0 0 0 0 1
symversion=0.1
}
C 42500 46000 1 90 0 capacitor-1.sym
{
T 41800 46200 5 10 0 0 90 0 1
device=CAPACITOR
T 42100 46300 5 10 1 1 180 0 1
refdes=C2
T 41600 46200 5 10 0 0 90 0 1
symversion=0.1
}
C 48400 47800 1 0 0 resistor-1.sym
{
T 48700 48200 5 10 0 0 0 0 1
device=RESISTOR
T 48600 48100 5 10 1 1 0 0 1
refdes=R3
}
C 41400 44400 1 90 0 resistor-1.sym
{
T 41000 44700 5 10 0 0 90 0 1
device=RESISTOR
T 41100 44800 5 10 1 1 180 0 1
refdes=R1
}
C 41300 46100 1 90 0 resistor-variable-1.sym
{
T 40400 46900 5 10 0 0 90 0 1
device=VARIABLE_RESISTOR
T 41000 46800 5 10 1 1 180 0 1
refdes=R2
}
C 47500 48700 1 90 0 LCD-1.sym
{
T 41925 49700 5 10 0 0 90 0 1
device=LCD
}
N 49900 41200 42500 41200 4
N 46300 43900 46300 41200 4
C 40700 42000 1 0 1 connector6-2.sym
{
T 40000 44900 5 10 1 1 0 0 1
refdes=PICkit
T 40400 44850 5 10 0 0 0 6 1
device=CONNECTOR_6
T 40400 45050 5 10 0 0 0 6 1
footprint=SIP6N
}
N 44300 47000 44300 48400 4
N 44300 48400 46600 48400 4
N 46600 48400 46600 48700 4
N 44700 47000 44700 48300 4
N 44700 48300 46300 48300 4
N 46300 48300 46300 48700 4
N 45100 47000 45100 48200 4
N 45100 48200 46000 48200 4
N 46000 48200 46000 48700 4
N 45700 48700 45700 48100 4
N 45500 47000 45500 48100 4
N 45500 48100 45700 48100 4
N 47900 43900 47900 41900 4
N 47900 41900 50800 41900 4
N 50800 41900 50800 41200 4
N 45900 47000 45900 48000 4
N 45900 48000 44200 48000 4
N 44200 48700 44200 48000 4
N 46300 47000 46300 47900 4
N 43600 47900 46300 47900 4
N 43600 47900 43600 48700 4
N 47200 48700 47200 48500 4
N 41800 48500 47200 48500 4
N 42700 48500 42700 48700 4
N 47100 47000 47100 48500 4
N 47200 48700 48100 48700 4
N 48100 48700 48100 48200 4
N 47200 48200 46700 48200 4
N 46700 48200 46700 47000 4
N 43900 47000 43900 48500 4
N 43500 47000 43500 48300 4
N 41600 48300 43500 48300 4
N 43000 48300 43000 48700 4
N 47500 47400 47500 47000 4
N 48400 47300 48400 47400 4
N 48300 47300 48300 47000 4
N 42700 43900 43500 43900 4
N 42700 43900 42700 44400 4
N 42700 44400 40700 44400 4
N 48300 43900 48300 43600 4
N 42200 43600 49500 43600 4
N 42200 44000 40700 44000 4
N 40700 43600 41800 43600 4
N 41800 43400 41800 48500 4
N 41800 43400 46300 43400 4
N 45900 43900 45900 43200 4
N 40700 43200 45900 43200 4
N 45500 43900 45500 42800 4
N 40700 42800 45500 42800 4
N 41600 48300 41600 44000 4
N 42200 44000 42200 43600 4
N 42300 46900 41800 46900 4
N 42300 46000 41600 46000 4
N 47200 42700 47300 42700 4
N 47300 42700 47300 43600 4
N 43300 48700 43300 48100 4
N 40700 48100 43300 48100 4
N 40700 48100 40700 46600 4
N 41200 47000 41800 47000 4
N 41300 45300 41600 45300 4
N 48300 47300 48400 47300 4
N 49500 43600 49500 47900 4
N 48400 47900 46900 47900 4
N 46900 47900 46900 48700 4
N 49500 47900 49300 47900 4
C 42400 44400 1 90 0 switch-pushbutton-no-1.sym
{
T 42200 44800 5 10 1 1 180 0 1
refdes=S1
T 41800 44800 5 10 0 0 90 0 1
device=SWITCH_PUSHBUTTON_NO
}
N 42400 45400 41800 45400 4
N 46700 43900 46700 43600 4
N 45100 43900 45100 41800 4
N 44200 42300 44000 42300 4
N 44000 42300 44000 43600 4
N 44200 41800 43800 41800 4
N 43800 41800 43800 43400 4
N 43900 48700 43900 48500 4
T 47400 45600 6 8 1 0 90 0 1
OA5IN-
T 48200 45500 13 8 1 0 90 0 1
OA5OUT
T 47800 44500 6 8 1 0 90 0 1
OA5IN+
T 43800 44400 6 8 1 0 90 0 1
OA2OUT
T 44200 44500 6 8 1 0 90 0 1
OA2IN+
T 44600 44500 6 8 1 0 90 0 1
OA2IN-
