v 20130925 2
C 48400 48000 1 180 0 diode-1.sym
{
T 48000 47400 5 10 0 0 180 0 1
device=DIODE
T 48100 47500 5 10 0 1 180 0 1
refdes=D?
}
C 47600 46900 1 90 0 resistor-1.sym
{
T 47200 47200 5 10 0 0 90 0 1
device=RESISTOR
T 47300 47100 5 10 0 1 90 0 1
refdes=R?
}
C 46400 49600 1 270 0 resistor-variable-1.sym
{
T 47300 48800 5 10 0 0 270 0 1
device=VARIABLE_RESISTOR
T 46800 49000 5 10 0 1 270 0 1
refdes=R?
}
C 47300 48300 1 0 0 opamp-2.sym
{
T 48100 49300 5 10 0 0 0 0 1
device=OPAMP
T 48100 49100 5 10 0 1 0 0 1
refdes=U?
T 48100 49500 5 10 0 0 0 0 1
symversion=0.1
}
C 46300 49900 1 0 0 vdd-1.sym
C 47400 46600 1 0 0 gnd-1.sym
N 46500 49900 46500 49600 4
N 47000 49100 47300 49100 4
N 47500 47800 47000 47800 4
N 47000 47800 47000 48500 4
N 47000 48500 47300 48500 4
N 47500 46900 46500 46900 4
N 46500 46900 46500 48700 4
N 48400 48800 48400 47800 4
