%!PS-Adobe-3.0 EPSF-3.0
%%Creator: gEDA gschem 1.8.1-20121123-13-g875406c
%%CreationDate: Fri Mar 18 20:01:10 2016
%%Title: /home/jjmcd/Projects/Amateur_Radio/Schematics/SWRbridge/Plan160313.sch
%%Author: jjmcd
%%BoundingBox: 0 0 792 865
%%Orientation: Portrait
%%Pages: 1
%%EndComments
%%BeginProlog
% Prolog for gEDA, define all the functions needed for rendering
% schematics on Postscript devices


% Draw a line from the second coordinate to the first
% x2 y2 x1 y1 width line -
/line {
    setlinewidth
    % pop off first element and moveto
    moveto
    % pop off remaining elements and draw a line segment
    lineto
    % draw it
    stroke
} bind def


% Draw a dot
% x y r dot -
/dot {
    0 360 arc fill
} bind def

% Draw a dot-dashed line, a bunch of lined segments,
% if the array element only has length two, draw a dot.
% [ [x2 y2 x1 y1] [x4 y4 x3 y3] [x5 y5] ... ] width dashed -
/width 0 def
/dashed {
    dup 2.0 div /width exch def
    setlinewidth
    % pop off each line segment and draw it as a dot or as a line
    {
	aload length 2 gt
	{ moveto lineto stroke}
	{ width dot } ifelse
    } forall
} bind def

% Draw an arc segment
% x y r ang1 ang2 width darc -
/darc {
    setlinewidth
    arc stroke
} bind def

% Draw a series of arc segment bits, if the array element only has a single
% element in it, draw a dot.
% [ [sa1 ea1] [sa2 ea2] ... ] x y r width dashedarc -
/x 0 def
/y 0 def
/dashedarc {
    dup /width exch def
    setlinewidth
    /r exch def  
    /y exch def
    /x exch def
    { aload length 1 gt
	{
	    % this element had two angles in it
	    % extract start and stop angles
	    x y r   % drop x y and r onto stack
		    % at this point we have: sa ea x y r
		    % we need                      x y r sa ea
		    % so..
	    5 -2 roll
	    % and add it to the current path, and draw it
	    arc stroke
	} {
	    % this element only had one angle in it, place a
	    % filled dot at the appropriate place
	    % compute center point of the arc using the angle
	    % that is on the top of the stack
	    dup   		% angle angle
	    cos r mul x add 	% angle x
	    exch		% x angle
	    sin r mul y add	% x y
	    width		% x y width/2
	    dot			% draw the dot
	} ifelse
    } forall

    % Now draw it
    stroke
} bind def

% Draw a box
% width height x y linethickness box -
/box {
    setlinewidth
    moveto
    exch dup 0 rlineto	 % w h, h w w 0      -- Draw bottom line
    exch 0 exch rlineto	 % h w, w h 0, w 0 h -- Draw right line 
    neg 0 rlineto	 % w, -w 0           -- Draw Top line
    closepath		 % finish and draw it
    stroke
} bind def			     

% Draw a filled box
% width height x y fbox -
/fbox {
    moveto
    exch dup 0 rlineto	
    exch 0 exch rlineto	
    neg 0 rlineto		
    closepath			
    fill			
} bind def

% Font reincoding utilities

% ISOLatin1Encoding, extended with remaining uncoded glyphs
/ISOLatin1Extended [
    /.notdef /Lslash /lslash /OE /oe /Scaron /scaron /Zcaron /zcaron
    /Ydieresis /trademark /bullet /dagger /daggerdbl /ellipsis /emdash
    /endash /fi /fl /florin /fraction /guilsinglleft /guilsinglright
    /perthousand /quotedblbase /quotedblleft /quotedblright
    /quotesinglbase /quotesingle /.notdef /.notdef /.notdef /space
    /exclam /quotedbl /numbersign /dollar /percent /ampersand
    /quoteright /parenleft /parenright /asterisk /plus /comma /minus
    /period /slash /zero /one /two /three /four /five /six /seven /eight
    /nine /colon /semicolon /less /equal /greater /question /at /A /B /C
    /D /E /F /G /H /I /J /K /L /M /N /O /P /Q /R /S /T /U /V /W /X /Y /Z
    /bracketleft /backslash /bracketright /asciicircum /underscore
    /quoteleft /a /b /c /d /e /f /g /h /i /j /k /l /m /n /o /p /q /r /s
    /t /u /v /w /x /y /z /braceleft /bar /braceright /asciitilde
    /.notdef /.notdef /.notdef /.notdef /.notdef /.notdef /.notdef
    /.notdef /.notdef /.notdef /.notdef /.notdef /.notdef /.notdef
    /.notdef /.notdef /.notdef /dotlessi /grave /acute /circumflex
    /tilde /macron /breve /dotaccent /dieresis /.notdef /ring /cedilla
    /.notdef /hungarumlaut /ogonek /caron /space /exclamdown /cent
    /sterling /currency /yen /brokenbar /section /dieresis /copyright
    /ordfeminine /guillemotleft /logicalnot /hyphen /registered /macron
    /degree /plusminus /twosuperior /threesuperior /acute /mu /paragraph
    /periodcentered /cedilla /onesuperior /ordmasculine /guillemotright
    /onequarter /onehalf /threequarters /questiondown /Agrave /Aacute
    /Acircumflex /Atilde /Adieresis /Aring /AE /Ccedilla /Egrave /Eacute
    /Ecircumflex /Edieresis /Igrave /Iacute /Icircumflex /Idieresis /Eth
    /Ntilde /Ograve /Oacute /Ocircumflex /Otilde /Odieresis /multiply
    /Oslash /Ugrave /Uacute /Ucircumflex /Udieresis /Yacute /Thorn
    /germandbls /agrave /aacute /acircumflex /atilde /adieresis /aring
    /ae /ccedilla /egrave /eacute /ecircumflex /edieresis /igrave
    /iacute /icircumflex /idieresis /eth /ntilde /ograve /oacute
    /ocircumflex /otilde /odieresis /divide /oslash /ugrave /uacute
    /ucircumflex /udieresis /yacute /thorn /ydieresis
] def

% `new-font-name' `encoding-vector' `old-font-name' RE -
/RE {
    findfont
    dup maxlength dict begin {
        1 index /FID ne { def } { pop pop } ifelse
    } forall
    /Encoding exch def
    dup /FontName exch def
    currentdict end definefont pop
} bind def

% Text handling functions, select the font and scale it, then we need
% only to apply the appropriate transformations to get the text
% justified into the right spots.  The bad thing here is that we don't
% do any kerning, so the output may look a bit strange.

% compute the height of one character and return lly and ury
% (char) charheight lly ury
/charheight {
    gsave			% push graphics state
	newpath			% clear current path
	0 0 moveto		% Set current point
	false charpath		% get path
	flattenpath		% flatten path
	pathbbox		% stack = llx lly urx ury
	exch pop		% stack = llx lly ury
	3 -1 roll pop		% stack = lly ury
    grestore			% pop graphics state
} bind def

% compute the height of a string, one character at a time
% (string) stringheight lly ury
/lly 0.0 def
/ury 0.0 def

/stringheight {
    /lly 0.0 def			% initial value of heightmin
    /ury 0.0 def			% initial value of heightmax
    {				% work through string
	( ) dup 0 4 -1 roll put	% create one character string
	charheight		% measure it's height
	dup ury gt {		% if ury gt heightmax
	    /ury exch def	% update with new value
	} {
	    pop			% else discard ury
	} ifelse
	dup lly lt {		% if lly lt heightmin
	    /lly exch def	% update with new value
	} {
	    pop			% else discard lly
	} ifelse
    } forall
    lly ury			% Return the results
} bind def

% calculate the string width taking into account the escapes.
/mystrx 0.0 def
/mystry 0.0 def
/mystresc false def

/mystringwidth {
    /mystrx 0.0 def
    /mystry 0.0 def
    /mystresc false def
    {				% work through string
	% did we process the escape character last?
	mystresc {
	    % last character was escape
	    % handle the escape
	    % is it an _ = 95?
	    dup 95 eq {
		pop  % we don't need the character anymore
		% toggle drawing overbars
		0.0 0.0 % make it like it never happened...
	    } {
		% otherwise measure the character 
		(\\ ) dup 1 4 -1 roll put % count a \ and the character
		stringwidth
	    } ifelse
	    % and reset the flag
	    /mystresc false def
	} {
	    % last character was not escape
	    % is this escape
	    dup 92 eq {
		% yes, escape character, set flag
		/mystresc true def
		pop % drop character
		0.0 0.0 % make like this character has no width and height
	    } {
		( ) dup 0 4 -1 roll put	% create one character string
		stringwidth		% measure it's height/width
	    } ifelse
	} ifelse
	% accumulate x and y movements
	mystry add /mystry exch def
	mystrx add /mystrx exch def
    } forall
    mystrx mystry % drop results on stack
} bind def

% Render a string with overbars
%
/escaped false def
/drawoverbar false def
/fontsize 0.0 def

%string1 string2 append -
/append {
    2 copy length exch length add % find new length
    string dup % string1 string2 string string
    4 2 roll % string string string1 string2
    2 index 0 3 index
    % string string string1 string2 string 0 string1
    putinterval % string string string1 string2
    exch length exch putinterval
} bind def

% If drawoverbar is set, draw a line of the same length as the given string
% string overbarshowline -
/overbarshowline {
    % print overbar if necessary
    stringwidth pop 0
    drawoverbar {
        rlineto
        gsave stroke grestore
    } {
        rmoveto
    } ifelse
} bind def

% Draws overbars for the given string, then shows the string itself
% string overbarshow
/overbarshow {
    /overbarshowacc () def
    /overbarshowtxt () def

    gsave
    fontsize 10.0 div setlinewidth
    0 fontsize rmoveto  % move to (0,overbarheight)

    {				% work through string
	escaped {
	    % the last character was the escape
	    % handle the escape
	    % is it an _ = 95?
	    dup 95 eq {
		pop  % we don't need the character anymore
                overbarshowacc overbarshowline
                % toggle drawing overbars
		/drawoverbar drawoverbar not def

                % Append the contents off the accumulator to the text
                % string we're eventually going to show
                /overbarshowtxt overbarshowtxt overbarshowacc append def

                % clear accumulator
                /overbarshowacc () def
	    } {
                % add to accumulator
                (\\ ) dup 1 4 -1 roll put
                overbarshowacc exch append
                /overbarshowacc exch def
	    } ifelse
	    % and reset the flag
	    /escaped false def
	} {
	    % check for escape character \ = 92
	    dup 92 eq {
		% yes, escape character, set flag
		/escaped true def
		pop % drop character
	    } {
                % add to accumulator
                ( ) dup 0 4 -1 roll put
                overbarshowacc exch append
                /overbarshowacc exch def
	    } ifelse
	} ifelse
    } forall
    % Catch any leftovers
    overbarshowacc overbarshowline
    overbarshowtxt overbarshowacc append

    grestore
    show
} bind def

% 
% hcenter rjustify vcenter vjustify spacing [(line1) (line2) ... ] rot x y size text -
/stringw 0.0 def
/stringh 0.0 def
/spacing 0.0 def
/strings [ ] def
/stringtxt ( ) def
/stringcount 0 def
/rot 0.0 def

/text {
    gsave	        % save state for later
    /drawoverbar false def      % start by not drawing overbars

    dup /fontsize exch def  % save font size for corrections later
    % do font selection 
    /gEDAFont findfont
    exch scalefont
    setfont

    % set up coordinates
    translate           % move origin to given point
    rotate		% rotate so that text is drawn
    0 0 moveto
    dup length /stringcount exch def			% Get number of strings
    /strings exch def     				% save strings
    /spacing exch def
    % do we have more than 1 string to render?
    stringcount 1 eq {
	/stringtxt strings aload pop def		% get the string 
	/stringw stringtxt mystringwidth pop neg def	% get the -width
	/stringh stringtxt stringheight exch pop neg def% get the -height

	% First do vertical calculations
	% hcenter rjustify vcenter vjustify 
	% vertical justification
	{ 0 stringh rmoveto } if 
	% vertical center
	{ 0 stringh 0.3571425 mul rmoveto } if  % not 0.5, so that
						% it looks nicer
	% Then do horizontal calculations
	% right justify
	{ stringw 0 rmoveto } if
	% center
	{ stringw 2.0 div 0 rmoveto } if
	% Draw the text
	stringtxt overbarshow
    } {
	% More than one line, compute bounding box for the text

	% vertical height, don't use the actual hieght of the characters
	% assume that the user wants to make the baselines line up with two
	% text boxes placed side by side
	/stringh stringcount spacing mul neg def
	% Now figure out horizontal size, this amounts to keeping track
	% of the longest string
	/stringw 0.0 def
	strings {
	    mystringwidth pop
	    dup stringw gt {
		/stringw exch def
	    } {
		pop
	    } ifelse
	} forall
	/stringw stringw neg def 	% get the -width
	
	% First do vertical calculations
	% hcenter rjustify vcenter vjustify 
	% vertical justification
	{ 0 stringh fontsize add rmoveto } if 
	% vertical center
	{ 0 stringh 0.5 mul rmoveto } if 
	% Then do horizontal calculations
	% right justify
	{ stringw 0 rmoveto } if
	% center
	{ stringw 2.0 div 0 rmoveto } if
	% now move up to the first line and begin rendering
	0 stringcount 1 sub spacing mul rmoveto
	strings {
	    gsave		% Save starting point
	    overbarshow		% render the text
	    grestore
	    0 spacing neg rmoveto
	} forall
    } ifelse
    grestore 	% Restore old state
} bind def


%%EndProlog
%%Page: 1 1
/gEDAFont ISOLatin1Extended /Helvetica RE
2 setlinecap
0.072000 0.072000 scale
0 0 translate
1.000000 1.000000 scale
-40000 -40285 translate
gsave
43100 44200 49100 44200 10 line
49100 44200 49100 46700 10 line
49100 46700 43100 46700 10 line
43100 46700 43100 44200 10 line
43500 44100 43500 43900 10 line
gsave
false true false false 161.777776 [(1) ] 90 43450 44100 144.444443 text
grestore
gsave
false false false false 161.777776 [(MCLR) ] 90 43500 44250 144.444443 text
grestore
43900 44200 43900 43900 10 line
gsave
false true false false 161.777776 [(2) ] 90 43850 44100 144.444443 text
grestore
gsave
false false false false 161.777776 [(RA0/AN0) ] 90 43900 44250 144.444443 text
grestore
44300 44200 44300 43900 10 line
gsave
false true false false 161.777776 [(3) ] 90 44250 44100 144.444443 text
grestore
gsave
false false false false 161.777776 [(RA1/AN1) ] 90 44300 44250 144.444443 text
grestore
44700 44200 44701 43900 10 line
gsave
false true false false 161.777776 [(4) ] 90 44651 44100 144.444443 text
grestore
gsave
false false false false 161.777776 [(RB0/AN2) ] 90 44701 44250 144.444443 text
grestore
45100 44200 45100 43900 10 line
gsave
false true false false 161.777776 [(5) ] 90 45050 44100 144.444443 text
grestore
gsave
false false false false 161.777776 [(RB1/AN3) ] 90 45100 44250 144.444443 text
grestore
45500 44100 45500 43900 10 line
gsave
false true false false 161.777776 [(6) ] 90 45450 44100 144.444443 text
grestore
gsave
false false false false 161.777776 [(RB2/AN4/PGEC1) ] 90 45500 44250 144.444443 text
grestore
45900 44100 45900 43900 10 line
gsave
false true false false 161.777776 [(7) ] 90 45850 44100 144.444443 text
grestore
gsave
false false false false 161.777776 [(RB3/AN5/PGED1) ] 90 45900 44250 144.444443 text
grestore
46300 44200 46300 43900 10 line
gsave
false true false false 161.777776 [(8) ] 90 46250 44100 144.444443 text
grestore
gsave
false false false false 161.777776 [(Vss) ] 90 46300 44250 144.444443 text
grestore
46700 44200 46700 43900 10 line
gsave
false true false false 161.777776 [(9) ] 90 46650 44100 144.444443 text
grestore
gsave
false false false false 161.777776 [(OSC1/CLKI/RA2) ] 90 46700 44250 144.444443 text
grestore
47100 44200 47100 43900 10 line
gsave
false true false false 161.777776 [(10) ] 90 47050 44100 144.444443 text
grestore
gsave
false false false false 161.777776 [(OSC2/CLKO/RA3) ] 90 47100 44250 144.444443 text
grestore
47500 44200 47500 43900 10 line
gsave
false true false false 161.777776 [(11) ] 90 47450 44100 144.444443 text
grestore
gsave
false false false false 161.777776 [(RB4) ] 90 47500 44250 144.444443 text
grestore
47900 44200 47900 43900 10 line
gsave
false true false false 161.777776 [(12) ] 90 47850 44100 144.444443 text
grestore
gsave
false false false false 161.777776 [(RA4/AN24) ] 90 47900 44250 144.444443 text
grestore
48300 44200 48300 43900 10 line
gsave
false true false false 161.777776 [(13) ] 90 48250 44100 144.444443 text
grestore
gsave
false false false false 161.777776 [(Vdd) ] 90 48300 44250 144.444443 text
grestore
48700 44200 48700 43900 10 line
gsave
false true false false 161.777776 [(14) ] 90 48650 44100 144.444443 text
grestore
gsave
false false false false 161.777776 [(RB5/SDA1) ] 90 48700 44250 144.444443 text
grestore
48700 46700 48700 47000 10 line
gsave
false false false false 161.777776 [(15) ] 90 48655 46795 144.444443 text
grestore
gsave
false true false false 161.777776 [(RB6/SCL1) ] 90 48705 46645 144.444443 text
grestore
48300 46700 48300 47000 10 line
gsave
false false false false 161.777776 [(16) ] 90 48255 46795 144.444443 text
grestore
gsave
false true false false 161.777776 [(RB7/AN25/SCK1) ] 90 48305 46645 144.444443 text
grestore
47900 47000 47900 46700 10 line
gsave
false false false false 161.777776 [(17) ] 90 47850 46800 144.444443 text
grestore
gsave
false true false false 161.777776 [(RB8/AN26/SDO1) ] 90 47900 46650 144.444443 text
grestore
47500 47000 47500 46700 10 line
gsave
false false false false 161.777776 [(18) ] 90 47450 46800 144.444443 text
grestore
gsave
false true false false 161.777776 [(RB9/AN27/SDI1) ] 90 47500 46650 144.444443 text
grestore
47100 47000 47100 46700 10 line
gsave
false false false false 161.777776 [(19) ] 90 47050 46800 144.444443 text
grestore
gsave
false true false false 161.777776 [(Vss) ] 90 47100 46650 144.444443 text
grestore
46700 47000 46700 46700 10 line
gsave
false false false false 161.777776 [(20) ] 90 46650 46800 144.444443 text
grestore
gsave
false true false false 161.777776 [(Vcap) ] 90 46700 46650 144.444443 text
grestore
46300 47000 46300 46700 10 line
gsave
false false false false 161.777776 [(21) ] 90 46250 46800 144.444443 text
grestore
gsave
false true false false 161.777776 [(RB10) ] 90 46300 46650 144.444443 text
grestore
45900 47000 45900 46700 10 line
gsave
false false false false 161.777776 [(22) ] 90 45850 46800 144.444443 text
grestore
gsave
false true false false 161.777776 [(RB11) ] 90 45900 46650 144.444443 text
grestore
45500 47000 45500 46700 10 line
gsave
false false false false 161.777776 [(23) ] 90 45450 46800 144.444443 text
grestore
gsave
false true false false 161.777776 [(RB12) ] 90 45500 46650 144.444443 text
grestore
45100 47000 45100 46700 10 line
gsave
false false false false 161.777776 [(24) ] 90 45050 46800 144.444443 text
grestore
gsave
false true false false 161.777776 [(RB13) ] 90 45100 46650 144.444443 text
grestore
44700 47000 44700 46700 10 line
gsave
false false false false 161.777776 [(25) ] 90 44650 46800 144.444443 text
grestore
gsave
false true false false 161.777776 [(RB14) ] 90 44700 46650 144.444443 text
grestore
44300 47000 44300 46700 10 line
gsave
false false false false 161.777776 [(26) ] 90 44250 46800 144.444443 text
grestore
gsave
false true false false 161.777776 [(RB15) ] 90 44300 46650 144.444443 text
grestore
43900 47000 43900 46700 10 line
gsave
false false false false 161.777776 [(27) ] 90 43850 46800 144.444443 text
grestore
gsave
false true false false 161.777776 [(AVss) ] 90 43900 46650 144.444443 text
grestore
43500 47000 43500 46700 10 line
gsave
false false false false 161.777776 [(28) ] 90 43450 46800 144.444443 text
grestore
gsave
false true false false 161.777776 [(AVdd) ] 90 43500 46650 144.444443 text
grestore
43339 44260 43339 44660 10 line
43500 44150 50 0 360 10 darc
gsave
false false false false 202.222224 [(dsPIC33EVxxGMx02) ] 90 43000 44200 180.555557 text
grestore
45450 44100 45550 44100 10 line
45550 44100 45550 44200 10 line
45550 44200 45450 44200 10 line
45450 44200 45450 44100 10 line
45850 44100 45950 44100 10 line
45950 44100 45950 44200 10 line
45950 44200 45850 44200 10 line
45850 44200 45850 44100 10 line
60 60 47070 43870 fbox
60 60 47470 43870 fbox
60 60 48670 43870 fbox
60 60 48670 46970 fbox
60 60 47870 46970 fbox
grestore
gsave
false true false true 202.222224 [(U1) ] 0 43000 46700 180.555557 text
grestore
gsave
48100 47200 48100 47600 10 line
48100 47200 47800 47400 10 line
47800 47400 48100 47600 10 line
47800 47200 47800 47600 10 line
48400 47400 48200 47400 10 line
47500 47400 47700 47400 10 line
47700 47400 47800 47400 10 line
48100 47400 48200 47400 10 line
newpath
47500 47400
25
0 360 arc
fill
newpath
47500 47400
25
0 360 arc
fill
grestore
gsave
false true false true 202.222224 [(1N5711) ] 0 48800 47600 180.555557 text
grestore
gsave
51000 40900 50600 40900 10 line
51000 40900 50800 40600 10 line
50800 40600 50600 40900 10 line
51000 40600 50600 40600 10 line
50800 41200 50800 41000 10 line
50800 40300 50800 40500 10 line
50800 40500 50800 40600 10 line
50800 40900 50800 41000 10 line
newpath
50800 41200
25
0 360 arc
fill
60 60 50770 40270 fbox
grestore
gsave
false false false false 202.222224 [(1N5711) ] 0 50000 40400 180.555557 text
grestore
gsave
41400 40600 41800 40600 10 line
41400 40600 41600 40900 10 line
41600 40900 41800 40600 10 line
41400 40900 41800 40900 10 line
41600 40300 41600 40500 10 line
41600 41200 41600 41000 10 line
41600 41000 41600 40900 10 line
41600 40600 41600 40500 10 line
60 60 41570 40270 fbox
newpath
41600 41200
25
0 360 arc
fill
grestore
gsave
false true false true 202.222224 [(D2) ] 0 41300 40800 180.555557 text
grestore
gsave
46200 40900 46400 40800 10 line
46400 40800 46200 40700 10 line
46200 40700 46400 40600 10 line
46400 40600 46200 40500 10 line
46200 40900 46400 41000 10 line
46400 41000 46300 41050 10 line
46300 41200 46300 41050 10 line
46300 40300 46300 40452 10 line
46200 40501 46300 40450 10 line
newpath
46300 41200
25
0 360 arc
fill
newpath
46300 41200
25
0 360 arc
fill
60 60 46270 40270 fbox
grestore
gsave
false true false true 202.222224 [(R4) ] 0 46000 40600 180.555557 text
grestore
gsave
44800 42600 44700 42400 10 line
44700 42400 44600 42600 10 line
44600 42600 44500 42400 10 line
44500 42400 44400 42600 10 line
44800 42600 44900 42400 10 line
44900 42400 44950 42500 10 line
45100 42500 44950 42500 10 line
44200 42500 44352 42500 10 line
44401 42600 44350 42500 10 line
newpath
45100 42500
25
0 360 arc
fill
newpath
45100 42500
25
0 360 arc
fill
grestore
gsave
false false false false 202.222224 [(R5) ] 0 44300 42600 180.555557 text
grestore
gsave
44800 42200 44700 42000 10 line
44700 42000 44600 42200 10 line
44600 42200 44500 42000 10 line
44500 42000 44400 42200 10 line
44800 42200 44900 42000 10 line
44900 42000 44950 42100 10 line
45100 42100 44950 42100 10 line
44200 42100 44352 42100 10 line
44401 42200 44350 42100 10 line
grestore
gsave
false false false false 202.222224 [(R6) ] 0 44300 42200 180.555557 text
grestore
41600 40300 50800 40300 30 line
gsave
47200 48200 47400 48200 10 line
gsave
false true false false 161.777776 [(1) ] 0 47350 48250 144.444443 text
grestore
48100 48200 47900 48200 10 line
gsave
false false false false 161.777776 [(2) ] 0 47950 48250 144.444443 text
grestore
47750 48400 47750 48000 10 line
47900 48200 47750 48200 10 line
47550 48200 47400 48200 10 line
47439 48400 47439 48300 10 line
47490 48349 47390 48349 10 line
47550 48000 47650 48000 10 line
47650 48000 47650 48400 10 line
47650 48400 47550 48400 10 line
47550 48400 47550 48000 10 line
grestore
gsave
false false false false 202.222224 [(C1) ] 0 47400 48500 180.555557 text
grestore
gsave
49900 41200 50100 41200 10 line
50800 41200 50600 41200 10 line
50300 41400 50300 41000 10 line
50400 41400 50400 41000 10 line
50600 41200 50400 41200 10 line
50300 41200 50100 41200 10 line
newpath
50800 41200
25
0 360 arc
fill
grestore
gsave
false false false false 202.222224 [(0.001) ] 0 49800 41000 180.555557 text
grestore
gsave
41600 41200 41800 41200 10 line
42500 41200 42300 41200 10 line
42000 41400 42000 41000 10 line
42100 41400 42100 41000 10 line
42300 41200 42100 41200 10 line
42000 41200 41800 41200 10 line
newpath
41600 41200
25
0 360 arc
fill
grestore
gsave
false false false false 202.222224 [(C4) ] 0 42200 41000 180.555557 text
grestore
gsave
46300 42700 46500 42700 10 line
47200 42700 47000 42700 10 line
46700 42900 46700 42500 10 line
46800 42900 46800 42500 10 line
47000 42700 46800 42700 10 line
46700 42700 46500 42700 10 line
newpath
46300 42700
25
0 360 arc
fill
newpath
46300 42700
25
0 360 arc
fill
grestore
gsave
false false false false 202.222224 [(C3) ] 0 46900 42400 180.555557 text
grestore
gsave
42300 46000 42300 46200 10 line
42300 46900 42300 46700 10 line
42100 46400 42500 46400 10 line
42100 46500 42500 46500 10 line
42300 46700 42300 46500 10 line
42300 46400 42300 46200 10 line
grestore
gsave
false true false true 202.222224 [(C2) ] 0 42100 46300 180.555557 text
grestore
gsave
49000 48000 48900 47800 10 line
48900 47800 48800 48000 10 line
48800 48000 48700 47800 10 line
48700 47800 48600 48000 10 line
49000 48000 49100 47800 10 line
49100 47800 49150 47900 10 line
49300 47900 49150 47900 10 line
48400 47900 48552 47900 10 line
48601 48000 48550 47900 10 line
grestore
gsave
false false false false 202.222224 [(R3) ] 0 48600 48100 180.555557 text
grestore
gsave
41200 45000 41400 44900 10 line
41400 44900 41200 44800 10 line
41200 44800 41400 44700 10 line
41400 44700 41200 44600 10 line
41200 45000 41400 45100 10 line
41400 45100 41300 45150 10 line
41300 45300 41300 45150 10 line
41300 44400 41300 44552 10 line
41200 44601 41300 44550 10 line
newpath
41300 44400
25
0 360 arc
fill
newpath
41300 44400
25
0 360 arc
fill
grestore
gsave
false true false true 202.222224 [(R1) ] 0 41100 44800 180.555557 text
grestore
gsave
40850 46600 40700 46600 10 line
41100 46600 40999 46548 10 line
41099 46601 40998 46653 10 line
41100 46700 41300 46600 10 line
41300 46600 41100 46500 10 line
41100 46500 41300 46400 10 line
41300 46400 41100 46300 10 line
41100 46700 41300 46800 10 line
41300 46800 41200 46850 10 line
41200 47000 41200 46850 10 line
41200 46100 41200 46252 10 line
41100 46301 41200 46250 10 line
41100 46600 40850 46600 10 line
60 60 41170 46070 fbox
grestore
gsave
false true false true 202.222224 [(R2) ] 0 41000 46800 180.555557 text
grestore
gsave
42200 49000 47500 49000 10 line
47500 49000 47500 52300 10 line
47500 52300 42200 52300 10 line
42200 52300 42200 49000 10 line
gsave
false false false false 161.777776 [(VSS \(GND\)) ] 90 42700 49075 144.444443 text
grestore
42700 49000 42700 48700 10 line
gsave
false false false false 161.777776 [(1) ] 90 42650 48836 144.444443 text
grestore
gsave
false false false false 161.777776 [(VDD \(VCC\)) ] 90 43000 49075 144.444443 text
grestore
43000 49000 43000 48700 10 line
gsave
false false false false 161.777776 [(2) ] 90 42950 48796 144.444443 text
grestore
gsave
false false false false 161.777776 [(V0) ] 90 43300 49075 144.444443 text
grestore
43300 49000 43300 48700 10 line
gsave
false false false false 161.777776 [(3) ] 90 43250 48820 144.444443 text
grestore
gsave
false false false false 161.777776 [(RS) ] 90 43600 49075 144.444443 text
grestore
43600 49000 43600 48700 10 line
gsave
false false false false 161.777776 [(4) ] 90 43550 48796 144.444443 text
grestore
gsave
false false false false 161.777776 [(R/\\_W\\_) ] 90 43900 49075 144.444443 text
grestore
43900 49000 43900 48700 10 line
gsave
false false false false 161.777776 [(5) ] 90 43850 48820 144.444443 text
grestore
gsave
false false false false 161.777776 [(E) ] 90 44200 49075 144.444443 text
grestore
44200 49000 44200 48700 10 line
gsave
false false false false 161.777776 [(6) ] 90 44150 48804 144.444443 text
grestore
gsave
false false false false 161.777776 [(DB0) ] 90 44500 49050 144.444443 text
grestore
44500 49000 44500 48700 10 line
gsave
false false false false 161.777776 [(7) ] 90 44450 48820 144.444443 text
grestore
gsave
false false false false 161.777776 [(DB1) ] 90 44800 49050 144.444443 text
grestore
44800 49000 44800 48700 10 line
gsave
false false false false 161.777776 [(8) ] 90 44750 48812 144.444443 text
grestore
gsave
false false false false 161.777776 [(DB2) ] 90 45100 49050 144.444443 text
grestore
45100 49000 45100 48700 10 line
gsave
false false false false 161.777776 [(9) ] 90 45050 48796 144.444443 text
grestore
gsave
false false false false 161.777776 [(DB3) ] 90 45400 49050 144.444443 text
grestore
45400 48700 45400 49000 10 line
gsave
false false false false 161.777776 [(10) ] 90 45350 48800 144.444443 text
grestore
gsave
false false false false 161.777776 [(DB4) ] 90 45700 49050 144.444443 text
grestore
45700 48700 45700 49000 10 line
gsave
false false false false 161.777776 [(11) ] 90 45650 48800 144.444443 text
grestore
gsave
false false false false 161.777776 [(DB5) ] 90 46000 49050 144.444443 text
grestore
46000 48700 46000 49000 10 line
gsave
false false false false 161.777776 [(12) ] 90 45950 48800 144.444443 text
grestore
gsave
false false false false 161.777776 [(DB6) ] 90 46300 49050 144.444443 text
grestore
46300 48700 46300 49000 10 line
gsave
false false false false 161.777776 [(13) ] 90 46250 48800 144.444443 text
grestore
gsave
false false false false 161.777776 [(DB7) ] 90 46600 49050 144.444443 text
grestore
46600 48700 46600 49000 10 line
gsave
false false false false 161.777776 [(14) ] 90 46550 48800 144.444443 text
grestore
gsave
false false false false 161.777776 [(A ) ] 90 46900 49050 144.444443 text
grestore
46900 48700 46900 49000 10 line
gsave
false false false false 161.777776 [(15) ] 90 46850 48800 144.444443 text
grestore
gsave
false false false false 161.777776 [(K) ] 90 47200 49050 144.444443 text
grestore
47200 48700 47200 49000 10 line
gsave
false false false false 161.777776 [(16) ] 90 47150 48800 144.444443 text
grestore
42500 50000 47300 50000 10 line
47300 50000 47300 52100 10 line
47300 52100 42500 52100 10 line
42500 52100 42500 50000 10 line
gsave
false false false false 303.333345 [(LCD) ] 90 44700 50800 270.833344 text
grestore
60 60 44470 48670 fbox
60 60 44770 48670 fbox
60 60 45070 48670 fbox
60 60 45370 48670 fbox
newpath
47200 48700
25
0 360 arc
fill
grestore
49900 41200 42500 41200 10 line
46300 43900 46300 41200 10 line
gsave
40700 44400 40500 44400 10 line
gsave
false true false false 161.777776 [(1) ] 0 40350 44400 144.444443 text
grestore
40450 44400 50 0 360 10 darc
40700 44000 40500 44000 10 line
gsave
false true false false 161.777776 [(2) ] 0 40350 44000 144.444443 text
grestore
40450 44000 50 0 360 10 darc
40700 43600 40500 43600 10 line
gsave
false true false false 161.777776 [(3) ] 0 40350 43600 144.444443 text
grestore
40450 43600 50 0 360 10 darc
40700 43200 40500 43200 10 line
gsave
false true false false 161.777776 [(4) ] 0 40350 43200 144.444443 text
grestore
40450 43200 50 0 360 10 darc
40700 42800 40500 42800 10 line
gsave
false true false false 161.777776 [(5) ] 0 40350 42800 144.444443 text
grestore
40450 42800 50 0 360 10 darc
40700 42400 40500 42400 10 line
gsave
false true false false 161.777776 [(6) ] 0 40350 42400 144.444443 text
grestore
40450 42400 50 0 360 10 darc
40000 42000 40400 42000 10 line
40400 42000 40400 44800 10 line
40400 44800 40000 44800 10 line
40000 44800 40000 42000 10 line
60 60 40670 42370 fbox
grestore
gsave
false false false false 202.222224 [(PICkit) ] 0 40000 44900 180.555557 text
grestore
44300 47000 44300 48400 10 line
44300 48400 46600 48400 10 line
46600 48400 46600 48700 10 line
44700 47000 44700 48300 10 line
44700 48300 46300 48300 10 line
46300 48300 46300 48700 10 line
45100 47000 45100 48200 10 line
45100 48200 46000 48200 10 line
46000 48200 46000 48700 10 line
45700 48700 45700 48100 10 line
45500 47000 45500 48100 10 line
45500 48100 45700 48100 10 line
47900 43900 47900 42800 10 line
47900 42800 50800 42800 10 line
50800 42800 50800 41200 10 line
45900 47000 45900 48000 10 line
45900 48000 44200 48000 10 line
44200 48700 44200 48000 10 line
46300 47000 46300 47900 10 line
43600 47900 46300 47900 10 line
43600 47900 43600 48700 10 line
47200 48700 47200 48500 10 line
41800 48500 47200 48500 10 line
42700 48500 42700 48700 10 line
47100 47000 47100 48500 10 line
47200 48700 48100 48700 10 line
48100 48700 48100 48200 10 line
47200 48200 46700 48200 10 line
46700 48200 46700 47000 10 line
43900 47000 43900 48500 10 line
43500 47000 43500 48300 10 line
41600 48300 43500 48300 10 line
43000 48300 43000 48700 10 line
42700 43900 43500 43900 10 line
42700 43900 42700 44400 10 line
42700 44400 40700 44400 10 line
48300 43900 48300 43600 10 line
42200 43600 49500 43600 10 line
42200 44000 40700 44000 10 line
40700 43600 41800 43600 10 line
41800 43400 41800 48500 10 line
41800 43400 46300 43400 10 line
45900 43900 45900 43200 10 line
40700 43200 45900 43200 10 line
45500 43900 45500 42800 10 line
40700 42800 45500 42800 10 line
41600 48300 41600 44000 10 line
42200 44000 42200 43600 10 line
42300 46900 41800 46900 10 line
42300 46000 41600 46000 10 line
47200 42700 47300 42700 10 line
47300 42700 47300 43600 10 line
43300 48700 43300 48100 10 line
40700 48100 43300 48100 10 line
40700 48100 40700 46600 10 line
41200 47000 41800 47000 10 line
41300 45300 41600 45300 10 line
49500 43600 49500 47900 10 line
48400 47900 46900 47900 10 line
46900 47900 46900 48700 10 line
49500 47900 49300 47900 10 line
gsave
42400 44400 42400 44550 10 line
gsave
false false false false 161.777776 [(1) ] 90 42350 44450 144.444443 text
grestore
42400 45250 42400 45400 10 line
gsave
false false false false 161.777776 [(2) ] 90 42350 45300 144.444443 text
grestore
42400 44550 42400 44725 10 line
42400 45250 42400 45075 10 line
42315 44700 42315 45100 10 line
42400 44739 14 0 360 10 darc
42400 45062 14 0 360 10 darc
42145 44870 42145 44920 10 line
42195 44870 42195 44920 10 line
42195 44870 42245 44895 10 line
42195 44920 42245 44895 10 line
42195 44895 42145 44895 10 line
42245 44895 42314 44895 10 line
newpath
42400 44400
25
0 360 arc
fill
newpath
42400 44400
25
0 360 arc
fill
grestore
gsave
false true false true 202.222224 [(S1) ] 0 42200 44800 180.555557 text
grestore
42400 45400 41800 45400 10 line
46700 43900 46700 43600 10 line
45100 43900 45100 42100 10 line
44200 42500 44000 42500 10 line
44000 42500 44000 43600 10 line
44200 42100 43800 42100 10 line
43800 42100 43800 43400 10 line
43900 48700 43900 48500 10 line
gsave
false false false false 161.777776 [(OA5IN-) ] 90 47400 45600 144.444443 text
grestore
gsave
false false false false 161.777776 [(OA5OUT) ] 90 48200 45500 144.444443 text
grestore
gsave
false false false false 161.777776 [(OA5IN+) ] 90 47800 44500 144.444443 text
grestore
gsave
false false false false 161.777776 [(OA2OUT) ] 90 43800 44400 144.444443 text
grestore
gsave
false false false false 161.777776 [(OA2IN+) ] 90 44200 44500 144.444443 text
grestore
gsave
false false false false 161.777776 [(OA2IN-) ] 90 44600 44500 144.444443 text
grestore
gsave
50500 41700 50400 41500 10 line
50400 41500 50300 41700 10 line
50300 41700 50200 41500 10 line
50200 41500 50100 41700 10 line
50500 41700 50600 41500 10 line
50600 41500 50650 41600 10 line
50800 41600 50650 41600 10 line
49900 41600 50052 41600 10 line
50101 41700 50050 41600 10 line
newpath
50800 41600
25
0 360 arc
fill
newpath
50800 41600
25
0 360 arc
fill
grestore
gsave
false false false false 202.222224 [(47K) ] 0 50000 41700 180.555557 text
grestore
gsave
42200 41700 42100 41500 10 line
42100 41500 42000 41700 10 line
42000 41700 41900 41500 10 line
41900 41500 41800 41700 10 line
42200 41700 42300 41500 10 line
42300 41500 42350 41600 10 line
42500 41600 42350 41600 10 line
41600 41600 41752 41600 10 line
41801 41700 41750 41600 10 line
newpath
41600 41600
25
0 360 arc
fill
newpath
41600 41600
25
0 360 arc
fill
grestore
gsave
false false false false 202.222224 [(R7) ] 0 41800 41800 180.555557 text
grestore
gsave
44000 41900 43900 41700 10 line
43900 41700 43800 41900 10 line
43800 41900 43700 41700 10 line
43700 41700 43600 41900 10 line
44000 41900 44100 41700 10 line
44100 41700 44150 41800 10 line
44300 41800 44150 41800 10 line
43400 41800 43552 41800 10 line
43601 41900 43550 41800 10 line
grestore
gsave
false false false false 202.222224 [(R9) ] 0 43500 41900 180.555557 text
grestore
gsave
49800 43600 50000 43500 10 line
50000 43500 49800 43400 10 line
49800 43400 50000 43300 10 line
50000 43300 49800 43200 10 line
49800 43600 50000 43700 10 line
50000 43700 49900 43750 10 line
49900 43900 49900 43750 10 line
49900 43000 49900 43152 10 line
49800 43201 49900 43150 10 line
grestore
gsave
false false false false 202.222224 [(12K) ] 0 50000 43000 180.555557 text
grestore
41600 41200 41600 43100 10 line
42500 41600 46300 41600 10 line
49900 41600 46300 41600 10 line
44300 43900 44300 43100 10 line
44300 43100 41600 43100 10 line
gsave
42600 42700 42600 42300 10 line
42600 42700 42900 42500 10 line
42900 42500 42600 42300 10 line
42900 42700 42900 42300 10 line
42300 42500 42500 42500 10 line
43200 42500 43000 42500 10 line
43000 42500 42900 42500 10 line
42600 42500 42500 42500 10 line
grestore
gsave
false false false false 202.222224 [(D4) ] 0 42700 42100 180.555557 text
grestore
43400 43300 44701 43300 10 line
44701 43300 44701 43900 10 line
43400 41800 43400 43300 10 line
42300 42500 42300 43700 10 line
42300 43700 43900 43700 10 line
43900 43700 43900 43900 10 line
43200 42500 43400 42500 10 line
44300 41800 44300 41600 10 line
47500 47700 49900 47700 10 line
49900 47700 49900 43900 10 line
49900 43000 46300 43000 10 line
47500 47000 47500 47700 10 line
48400 47400 48400 47200 10 line
48400 47200 48300 47200 10 line
48300 47200 48300 47000 10 line
60 60 47070 43870 fbox
60 60 47470 43870 fbox
60 60 48670 43870 fbox
60 60 48670 46970 fbox
60 60 47870 46970 fbox
newpath
47500 47400
25
0 360 arc
fill
newpath
47500 47400
25
0 360 arc
fill
newpath
50800 41200
25
0 360 arc
fill
60 60 50770 40270 fbox
60 60 41570 40270 fbox
newpath
41600 41200
25
0 360 arc
fill
newpath
46300 41200
25
0 360 arc
fill
newpath
46300 41200
25
0 360 arc
fill
60 60 46270 40270 fbox
newpath
45100 42500
25
0 360 arc
fill
newpath
45100 42500
25
0 360 arc
fill
newpath
50800 41200
25
0 360 arc
fill
newpath
41600 41200
25
0 360 arc
fill
newpath
46300 42700
25
0 360 arc
fill
newpath
46300 42700
25
0 360 arc
fill
newpath
41300 44400
25
0 360 arc
fill
newpath
41300 44400
25
0 360 arc
fill
60 60 41170 46070 fbox
60 60 44470 48670 fbox
60 60 44770 48670 fbox
60 60 45070 48670 fbox
60 60 45370 48670 fbox
newpath
47200 48700
25
0 360 arc
fill
newpath
46300 41200
25
0 360 arc
fill
newpath
46300 41200
25
0 360 arc
fill
newpath
46300 41200
25
0 360 arc
fill
newpath
46300 42700
25
0 360 arc
fill
newpath
46300 41200
25
0 360 arc
fill
newpath
46300 43400
25
0 360 arc
fill
newpath
46300 41600
25
0 360 arc
fill
newpath
46300 41600
25
0 360 arc
fill
newpath
46300 43000
25
0 360 arc
fill
60 60 40670 42370 fbox
newpath
50800 41200
25
0 360 arc
fill
newpath
50800 41600
25
0 360 arc
fill
newpath
47200 48700
25
0 360 arc
fill
newpath
42700 48500
25
0 360 arc
fill
newpath
47100 48500
25
0 360 arc
fill
newpath
43900 48500
25
0 360 arc
fill
newpath
43900 48500
25
0 360 arc
fill
newpath
42700 48500
25
0 360 arc
fill
newpath
42700 48500
25
0 360 arc
fill
newpath
47100 48500
25
0 360 arc
fill
newpath
47100 48500
25
0 360 arc
fill
newpath
47200 48700
25
0 360 arc
fill
newpath
43900 48500
25
0 360 arc
fill
newpath
43900 48500
25
0 360 arc
fill
newpath
43000 48300
25
0 360 arc
fill
newpath
43000 48300
25
0 360 arc
fill
newpath
43000 48300
25
0 360 arc
fill
newpath
41300 44400
25
0 360 arc
fill
newpath
42400 44400
25
0 360 arc
fill
newpath
48300 43600
25
0 360 arc
fill
newpath
48300 43600
25
0 360 arc
fill
newpath
48300 43600
25
0 360 arc
fill
newpath
47300 43600
25
0 360 arc
fill
newpath
46700 43600
25
0 360 arc
fill
newpath
44000 43600
25
0 360 arc
fill
newpath
41600 44000
25
0 360 arc
fill
newpath
41800 43600
25
0 360 arc
fill
newpath
41800 43600
25
0 360 arc
fill
newpath
41800 43600
25
0 360 arc
fill
newpath
41800 46900
25
0 360 arc
fill
newpath
41800 47000
25
0 360 arc
fill
newpath
41800 45400
25
0 360 arc
fill
newpath
46300 43400
25
0 360 arc
fill
newpath
46300 43400
25
0 360 arc
fill
newpath
43800 43400
25
0 360 arc
fill
newpath
41600 44000
25
0 360 arc
fill
newpath
41600 44000
25
0 360 arc
fill
newpath
41600 46000
25
0 360 arc
fill
newpath
41600 45300
25
0 360 arc
fill
newpath
41800 46900
25
0 360 arc
fill
newpath
41800 46900
25
0 360 arc
fill
newpath
41600 46000
25
0 360 arc
fill
newpath
41600 46000
25
0 360 arc
fill
newpath
47300 43600
25
0 360 arc
fill
newpath
47300 43600
25
0 360 arc
fill
newpath
41800 47000
25
0 360 arc
fill
newpath
41800 47000
25
0 360 arc
fill
newpath
41600 45300
25
0 360 arc
fill
newpath
41600 45300
25
0 360 arc
fill
newpath
42400 44400
25
0 360 arc
fill
newpath
42400 44400
25
0 360 arc
fill
newpath
41800 45400
25
0 360 arc
fill
newpath
41800 45400
25
0 360 arc
fill
newpath
46700 43600
25
0 360 arc
fill
newpath
46700 43600
25
0 360 arc
fill
newpath
45100 42500
25
0 360 arc
fill
newpath
44000 43600
25
0 360 arc
fill
newpath
44000 43600
25
0 360 arc
fill
newpath
43800 43400
25
0 360 arc
fill
newpath
43800 43400
25
0 360 arc
fill
newpath
43900 48500
25
0 360 arc
fill
newpath
43900 48500
25
0 360 arc
fill
newpath
50800 41600
25
0 360 arc
fill
newpath
50800 41600
25
0 360 arc
fill
newpath
41600 41600
25
0 360 arc
fill
newpath
41600 41600
25
0 360 arc
fill
newpath
41600 41200
25
0 360 arc
fill
newpath
41600 41600
25
0 360 arc
fill
newpath
46300 41600
25
0 360 arc
fill
newpath
46300 41600
25
0 360 arc
fill
newpath
44300 41600
25
0 360 arc
fill
newpath
46300 41600
25
0 360 arc
fill
newpath
46300 41600
25
0 360 arc
fill
newpath
43400 42500
25
0 360 arc
fill
newpath
43400 42500
25
0 360 arc
fill
newpath
43400 42500
25
0 360 arc
fill
newpath
44300 41600
25
0 360 arc
fill
newpath
44300 41600
25
0 360 arc
fill
newpath
46300 43000
25
0 360 arc
fill
newpath
46300 43000
25
0 360 arc
fill
newpath
47500 47400
25
0 360 arc
fill
showpage
%%End
